{
  "cviceni": {
    "version": {
      "global": "<%= version %>",
      "content": 1
    },
    "katalog": ["test"],
    "language": "cs",
    "slug": "meli-udat-cyklistu",
    "nazev": "Měli udat cyklistu?",
    "autor": ["Petr Sedlák"],
    "klicovaSlova": [
      "druhá světová válka", "protektorát", "kolaborace", "příčiny a důsledky", "otevíráme otázku"
    ],
    "anotace": {
      "ucitel": "Cvičení nabízí žákům možnost otevřít téma kolaborace s nepřítelem prostřednictvím dvou méně tradičních pramenů – fotografie věcí nalezených na místě atentátu na Heydricha a rozhlasového projevu člena protektorátní vlády. Výstavku iniciovali němečtí okupanti s úmyslem finančně motivovat české obyvatele k udání atentátníku. V projevu ministra žáci analyzují argumenty, kterými se snažil apelovat na spoluobčany, aby se od atentátníků distancovali. Žáci obě skutečnosti interpretují svými slovy v závěrečných odpovědích.",
      "verejna": "Proč slibovali nacističtí okupanti deset milionů korun za nalezení majitele kola a dalších věcí? Poslechněte si výzvu českého ministra v rádiu, který svým krajanům radí, aby hon na cyklistu podpořili. Dozvíte se, čím tak okupanty rozhněval a Čechy vystrašil."
    },
    "obtiznost": "stredni",
    "trvani": 15,
    "funkce": [
      "lupa",
      "cteni",
      "text",
      "svg",
      "znacky",
      "audio",
      "text-editor"
    ],
    "pdf": {
      "doporucenyPostup": "meli-udat-cyklistu.pdf"
    },
    "uvodniObrazek": "meli-udat-cyklistu/pic-00-1280w.jpg",
    "id": 93
  },
  "slajd": [
    {
      "zadani": {
        "hlavni": "Prohlédněte si fotografii.",
        "rozsirujici": ""
      },
      "napoveda": {
        "aktivity": ["lupa"],
        "text": "Při kliknutí levým tlačítkem do obrazu lupa přiblíží část obrazu ve výřezu."
      },
      "prameny": ["meli-udat-cyklistu/pic-00-1280w.jpg"],
      "popisky": [
        "Václavské náměstí v Praze, prodejna Baťa, pravděpodobně 28. května 1942. Zdroj: ČTK"
      ]
    },
    {
      "zadani": {
        "hlavni": "Označte a popište důležité prvky.",
        "rozsirujici": ""
      },
      "napoveda": {
        "aktivity": ["svg"],
        "text": "Kliknutím na snímek levým tlačítkem myši označujete bod. Nakliknutím na bod pravým tlačítkem otevřete menu s nabídkou úkonů: změnit barvu bodu, (T) doplnit textový komentář, (X) smazat nakliknutý objekt."
      },
      "svg": {
        "soubory": [
          {
            "id": "svg-1",
            "soubor": "meli-udat-cyklistu/pic-00-1024w.jpg",
            "funkce": ["text", "znacky"]
          }
        ]
      },
      "popisky": [
        "Václavské náměstí v Praze, prodejna Baťa, pravděpodobně 28. května 1942. Zdroj: ČTK"
      ]
    },
    {
      "zadani": {
        "hlavni": "Prozkoumejte další prameny. Nově zjištěné informace doplňte do fotografie červeně.",
        "rozsirujici": ""
      },
      "napoveda": {
        "aktivity": ["lupa", "audio"],
        "text": "Při kliknutí levým tlačítkem do obrazu lupa přiblíží část obrazu ve výřezu."
      },
      "svg": {
        "nastaveni": {
          "layout": "galerie"
        },
        "galerie": [
          {
            "soubor": "meli-udat-cyklistu/pic-01-1280w.jpg",
            "popisek": "Václavské náměstí v Praze před prodejnou Baťa, 28. května 1942. Zdroj: ČTK"
          },
          {
            "soubor": "meli-udat-cyklistu/pic-02-1280w.jpg",
            "popisek": "Polední list, zvláštní příloha, 28. května 1942. Zdroj: Wikimedia"
          },
          {
            "soubor": "meli-udat-cyklistu/pic-03-1280w.jpg",
            "popisek": "Výnos říšského protektora o vyhlášení výjimečného stavu, 27. května 1942. Zdroj: ČTK"
          }
        ],
        "soubory": [
          {
            "id": "svg-2",
            "duplikovat": ["svg-1"],
            "soubor": "meli-udat-cyklistu/pic-00-1024w.jpg",
            "funkce": ["text", "znacky"],
            "barvy": ["red"]
          }
        ]
      },
      "popisky": [
        "Václavské náměstí v Praze, prodejna Baťa, 28. května 1942. Zdroj: ČTK"
      ]
    },
    {
      "class": ["half-slide-previous"],
      "zadani": {
        "hlavni": "Co řekl ministr Hrubý?",
        "rozsirujici": "Poslechněte si projev. Vyznačte zeleně pasáže, ve kterých ministr popisuje vztah Čechů a protektorátní vlády, a žlutě, proč je podle něj v zájmu Čechů, aby oznámili pachatele atentátu."
      },
      "napoveda": {
        "aktivity": ["text-editor"],
        "text": "Levým tlačítkem myši zabarvíte zvolené slovo nebo slovní spojení. Otevře se vám nabídka, v níž zvolíte označovanou kategorii. Křížkem lze označení smazat."
      },
      "textovyEditor": {
        "nastaveni" :{
          "layout": "velka-galerie"
        },
        "galerie": [
          {
            "soubor": "meli-udat-cyklistu/audio-00.mp3",
            "nazev": "Projev ministra protektorátní vlády Adolfa Hrubého, 14. června 1942 (kráceno).",
            "popisek": "Projev ministra protektorátní vlády Adolfa Hrubého, 14. června 1942 (kráceno). Zdroj: Archiv ČRo"
          }
        ],
        "texty": [
          {
            "id": 1,
            "text": "text-00",
            "funkce": "zvyraznovani",
            "menu": [
              {
                "title": "vztah k vládě",
                "commandName": "vztah-k-vlade",
                "color": "green"
              },
              {
                "title": "proč dopadnout pachatele",
                "commandName": "proc-dopadnout-pachatele",
                "color": "yellow"
              }
            ]
          }
        ]
      }
    },
    {
      "class": ["half-slide-active"],
      "zadani": {
        "hlavni": "Zodpovězte otázky.",
        "rozsirujici": ""
      },
      "napoveda": {
        "aktivity": ["text"],
        "text": "Do boxu pro text zapisujete odpověď na otázku, nebo jiný komentář (dle zadání)."
      },
      "uzivatelskyText": {
        "otazky": [
          {
            "id": "text-1",
            "zadani": "Do jaké situace postavili němečtí okupanti české obyvatelstvo protektorátu po atentátu a smrti zastupujícího říšského protektora R. Heydricha?",
            "instrukce": "Myslím si, že…",
            "minDelka": 10,
            "maxDelka": 400
          },
          {
            "id": "text-2",
            "zadani": "Jak přesvědčovala protektorátní vláda obyvatelstvo, aby přispělo k dopadení atentátníků?",
            "instrukce": "Myslím si, že…",
            "minDelka": 10,
            "maxDelka": 400
          }
        ]
      }
    }
  ]
}
