{
  "cviceni": {
    "version": {
      "global": "<%= version %>",
      "content": 2
    },
    "katalog": ["public"],
    "language": "cs",
    "slug": "co-pripomina-pomnik",
    "nazev": "Co připomíná pomník?",
    "autor": ["Václav Sixta"],
    "casovaOsa": {
      "roky": [
        2017
      ],
      "epocha": {
        "svetova": ["lidstvo (život) na měnící se planetě"]
      }
    },
    "klicovaSlova": [
      "mimoevropský svět",
      "migrace",
      "občanská válka v Sýrii",
      "historický význam",
      "díváme se kolem sebe",
      "chápeme své emoce"
    ],
    "anotace": {
      "ucitel": "Cvičení nabízí neobvyklý pohled na občanskou válku v Sýrii. Prostřednictvím srovnání díla syrsko-německého umělce Manafa Halbouniho a fotografie z Aleppa se žáci seznámí se způsobem, jakým umělec připomíná utrpení obyvatel Sýrie, a sami se pokusí o aktualizaci díla jeho začleněním do českého kontextu.",
      "verejna": "Takový pomník jste ještě neviděli. Stál v Drážďanech v roce 2017 a nepřipomínal pomníky a památníky, jak je běžně známe. Prohlédněte si fotografie a zhodnoťte dílo současného umělce."
    },
    "obtiznost": "střední",
    "trvani": 30,
    "funkce": ["lupa", "cteni", "text", "svg", "znacky"],
    "pdf": {
      "doporucenyPostup": "co-pripomina-pomnik.pdf"
    },
    "uvodniObrazek": "co-pripomina-pomnik/pic-01-1280w.jpg",
    "id": 81
  },
  "slajd": [
    {
      "zadani": {
        "hlavni": "Prohlédněte si fotografie.",
        "rozsirujici": ""
      },
      "napoveda": {
        "aktivity": ["lupa"],
        "text": [
          "Kliknutím levého tlačítka do obrazu a jeho podržením lupa přiblíží část obrazu ve výřezu."
        ]
      },
      "prameny": [
        "co-pripomina-pomnik/pic-00-1280w.jpg",
        "co-pripomina-pomnik/pic-01-1280w.jpg"
      ]
    },
    {
      "zadani": {
        "hlavni": "Označte důležité prvky na fotografiích a popište je.",
        "rozsirujici": ""
      },
      "napoveda": {
        "aktivity": ["svg"],
        "text": [
          "Kliknutím na snímek levým tlačítkem myši označujete bod. Nakliknutím na bod pravým tlačítkem otevřete menu s nabídkou úkonů: (T) doplnit textový komentář, (X) smazat nakliknutý objekt."
        ]
      },
      "svg": {
        "soubory": [
          {
            "id": "svg-1",
            "soubor": "co-pripomina-pomnik/pic-00-1024w.jpg",
            "funkce": ["text", "znacky"],
            "barvy": ["blue"]
          },
          {
            "id": "svg-2",
            "soubor": "co-pripomina-pomnik/pic-01-1024w.jpg",
            "funkce": ["text", "znacky"],
            "barvy": ["blue"]
          }
        ]
      }
    },
    {
      "zadani": {
        "hlavni": "Přečtěte si popisky k fotografiím a nově zjištěné informace doplňte do fotografie červeně.",
        "rozsirujici": ""
      },
      "napoveda": {
        "aktivity": ["svg"],
        "text": [
          "Kliknutím na snímek levým tlačítkem myši označujete bod. Nakliknutím na bod pravým tlačítkem otevřete menu s nabídkou úkonů: (T) doplnit textový komentář, (X) smazat nakliknutý objekt."
        ]
      },
      "popisky": [
        "Provizorní barikáda vytvořená z vraků autobusů tak, aby bránila ve výhledu odstřelovačům armády syrského režimu Bašára al-Asada, a ochraňovala tak obyvatele syrského města Aleppa. Aleppo bylo jedním z měst nejvíce zasažených občanskou válkou v Sýrii. Foto: Louai Barakat, 16. srpna 2016. Zdroj: ImagesLive/ZUMA Wire/Alamy Live News",
        "Dočasná Instalace německo-syrského umělce Manafa Halbouniho nazvaná &bdquo;Monument&rdquo; (v překladu pomník, památník) se věnuje válce v Sýrii. Monument byl odhalen 7. února 2017 v Drážďanech na náměstí před slavným kostelem Frauenkirche. Dílo bylo odhaleno několik dní před výročím bombardování Drážďan na konci druhé světové války, během kterého zahynulo přibližně 25 000 obyvatel města. Kostel byl během náletů zničen a později obnoven. Foto: Thomas Skowron. Zdroj: Wikimedia [CC BY (https://creativecommons.org/licenses/by/4.0)]"
      ],
      "svg": {
        "soubory": [
          {
            "id": "svg-3",
            "duplikovat": ["svg-1"],
            "soubor": "co-pripomina-pomnik/pic-00-1024w.jpg",
            "funkce": ["text", "znacky"],
            "barvy": ["red"]
          },
          {
            "id": "svg-4",
            "duplikovat": ["svg-2"],
            "soubor": "co-pripomina-pomnik/pic-01-1024w.jpg",
            "funkce": ["text", "znacky"],
            "barvy": ["red"]
          }
        ]
      }
    },
    {
      "class": "column",
      "zadani": {
        "hlavni": "Jakých témat se podle vás týká dílo Manafa Halbouniho?",
        "rozsirujici": "Pomocí zvětšování a zmenšování určete, k jakým tématům se podle vás dílo vztahuje."
      },
      "napoveda": {
        "aktivity": ["word-cloud"],
        "text": "Klikáním na znaménka -/+ zmenšujte či zdůrazňujte důležitost."
      },
      "klicovaSlova": {
        "layout": "velka-galerie",
        "galerie": [
          {
            "typ": "svg",
            "objekt": {
              "id": "svg-5",
              "soubor": "co-pripomina-pomnik/pic-01-1024w.jpg",
              "duplikovat": ["svg-4"],
              "funkce": ["text", "znacky"]
            }
          },
          {
            "typ": "text",
            "objekt": "Dočasná Instalace německo-syrského umělce Manafa Halbouniho nazvaná &bdquo;Monument&rdquo; (v překladu pomník, památník) se věnuje válce v Sýrii. Monument byl odhalen 7. února 2017 v Drážďanech na náměstí před slavným kostelem Frauenkirche. Dílo bylo odhaleno několik dní před výročím bombardování Drážďan na konci druhé světové války, během kterého zahynulo přibližně 25 000 obyvatel města. Kostel byl během náletů zničen a později obnoven. Foto: Thomas Skowron. Zdroj: Wikimedia [CC BY (https://creativecommons.org/licenses/by/4.0)]"
          },
          {
            "typ": "svg",
            "objekt": {
              "id": "svg-6",
              "soubor": "co-pripomina-pomnik/pic-00-1024w.jpg",
              "duplikovat": ["svg-3"],
              "funkce": ["text", "znacky"]
            }
          }
        ],
        "klicovaSlova": [
          {
            "id": "klicova-slova-1",
            "funkce": "wordcloud",
            "tagy": [
              {
                "text": "utrpení obyvatel ve válce"
              },
              {
                "text": "vynalézavost lidí v době války"
              },
              {
                "text": "bombardování Drážďan spojenci na konci druhé světové války (1945)"
              },
              {
                "text": "nesmyslnost války"
              },
              {
                "text": "obnova zničených měst po válce"
              },
              {
                "text": "bitva o Aleppo (2012–2016)"
              },
              {
                "text": "migrační krize (2014–2015)"
              },
              {
                "text": "obnova kostela Frauenkirche (1994–2005)"
              }
            ]
          }
        ]
      }
    },
    {
      "zadani": {
        "hlavni": "Jak hodnotíte dílo Manafa Halbouniho?",
        "rozsirujici": ""
      },
      "napoveda": {
        "aktivity": ["text"],
        "text": "Do boxu pro text zapisujete odpověď na otázku, nebo jiný komentář (dle zadání)."
      },
      "uzivatelskyText": {
        "otazky": [
          {
            "id": "otazka-1",
            "zadani": "Napište své hodnocení Halbouniho díla.",
            "instrukce": "Moje hodnocení díla (čím mě zaujalo, co mi na něm vadí, jaké pocity ve mně vyvolává, co mě napadá…)",
            "minDelka": 2,
            "maxDelka": 400
          },
          {
            "id": "otazka-2",
            "zadani": "Navrhněte místo v České republice, kam by bylo vhodné dílo umístit. Svůj výběr zdůvodněte.",
            "instrukce": "Myslím si, že…",
            "minDelka": 2,
            "maxDelka": 400
          }
        ]
      }
    }
  ]
}
